{
  "staging": {
    "awscloudformation": {
      "AuthRoleName": "amplify-amplify4da942438f6a4-staging-234120-authRole",
      "UnauthRoleArn": "arn:aws:iam::366166370563:role/amplify-amplify4da942438f6a4-staging-234120-unauthRole",
      "AuthRoleArn": "arn:aws:iam::366166370563:role/amplify-amplify4da942438f6a4-staging-234120-authRole",
      "Region": "us-west-2",
      "DeploymentBucketName": "amplify-amplify4da942438f6a4-staging-234120-deployment",
      "UnauthRoleName": "amplify-amplify4da942438f6a4-staging-234120-unauthRole",
      "StackName": "amplify-amplify4da942438f6a4-staging-234120",
      "StackId": "arn:aws:cloudformation:us-west-2:366166370563:stack/amplify-amplify4da942438f6a4-staging-234120/4caa05c0-f96b-11eb-8e6b-0ac403330061",
      "AmplifyAppId": "d306i11pb0iv2z"
    },
    "categories": {
      "auth": {
        "msfnephilimofshadrea052ae539": {}
      }
    }
  }
}